<?xml version="1.0" encoding="UTF-8" standalone="no"?>
<svg
   xmlns:dc="http://purl.org/dc/elements/1.1/"
   xmlns:cc="http://creativecommons.org/ns#"
   xmlns:rdf="http://www.w3.org/1999/02/22-rdf-syntax-ns#"
   xmlns:svg="http://www.w3.org/2000/svg"
   xmlns="http://www.w3.org/2000/svg"
   xmlns:sodipodi="http://sodipodi.sourceforge.net/DTD/sodipodi-0.dtd"
   xmlns:inkscape="http://www.inkscape.org/namespaces/inkscape"
   version="1.1"
   id="svg2"
   xml:space="preserve"
   viewBox="0 0 862.58667 536.59998"
   sodipodi:docname="jet.svg"
   inkscape:version="1.0.1 (3bc2e813f5, 2020-09-07)"><metadata
     id="metadata8"><rdf:RDF><cc:Work
         rdf:about=""><dc:format>image/svg+xml</dc:format><dc:type
           rdf:resource="http://purl.org/dc/dcmitype/StillImage" /><dc:title /></cc:Work></rdf:RDF></metadata><defs
     id="defs6" /><sodipodi:namedview
     pagecolor="#ffffff"
     bordercolor="#666666"
     borderopacity="1"
     objecttolerance="10"
     gridtolerance="10"
     guidetolerance="10"
     inkscape:pageopacity="0"
     inkscape:pageshadow="2"
     inkscape:window-width="1920"
     inkscape:window-height="1016"
     id="namedview4"
     showgrid="false"
     inkscape:zoom="0.77243928"
     inkscape:cx="619.29056"
     inkscape:cy="245.69565"
     inkscape:window-x="0"
     inkscape:window-y="27"
     inkscape:window-maximized="1"
     inkscape:current-layer="g10"
     inkscape:document-rotation="0" /><g
     id="g10"
     inkscape:groupmode="layer"
     inkscape:label="ink_ext_XXXXXX"
     transform="matrix(1.3333333,0,0,-1.3333333,0,783.6)"><path
       d="m 277.052,526.845 c 7.968,3.261 15.336,5.777 28.029,4.448 -3.118,-8.964 -8.869,-15.01 -17.085,-20.789 -3.648,5.448 -7.296,10.894 -10.944,16.341"
       style="fill:#f06c2c;fill-opacity:1;fill-rule:evenodd;stroke:none;stroke-width:0.1"
       id="path64" /><path
       d="m 161.893,467.567 110.416,58.297 c 12.125,6.402 23.266,-14.751 10.513,-21.271 l -96.401,-49.29 -24.528,12.264"
       style="fill:#2f2825;fill-opacity:1;fill-rule:evenodd;stroke:none;stroke-width:0.1"
       id="path66" /><path
       d="m 186.346,548.309 c 7.967,3.262 15.337,5.777 28.029,4.449 -3.117,-8.965 -8.87,-15.01 -17.085,-20.79 -3.648,5.448 -7.296,10.895 -10.944,16.341"
       style="fill:#f06c2c;fill-opacity:1;fill-rule:evenodd;stroke:none;stroke-width:0.1"
       id="path68" /><path
       d="m 71.1863,489.032 110.4147,58.297 c 12.126,6.402 23.268,-14.752 10.515,-21.273 L 95.7156,476.767 71.1863,489.032"
       style="fill:#2f2825;fill-opacity:1;fill-rule:evenodd;stroke:none;stroke-width:0.1"
       id="path70" /><path
       d="m 489.043,383.051 c 7.968,3.26 15.337,5.776 28.029,4.447 -3.117,-8.964 -8.869,-15.01 -17.086,-20.788 -3.648,5.448 -7.296,10.893 -10.943,16.341"
       style="fill:#f06c2c;fill-opacity:1;fill-rule:evenodd;stroke:none;stroke-width:0.1"
       id="path72" /><path
       d="m 343.147,308.059 141.151,74.012 c 12.145,6.367 23.269,-14.752 10.514,-21.274 l -127.136,-65.005 -24.529,12.267"
       style="fill:#2f2825;fill-opacity:1;fill-rule:evenodd;stroke:none;stroke-width:0.1"
       id="path74" /><path
       d="m 525.519,325.956 c 7.968,3.261 15.339,5.777 28.03,4.447 -3.117,-8.964 -8.87,-15.009 -17.086,-20.789 -3.647,5.45 -7.296,10.895 -10.944,16.342"
       style="fill:#f06c2c;fill-opacity:1;fill-rule:evenodd;stroke:none;stroke-width:0.1"
       id="path76" /><path
       d="m 410.359,266.678 110.416,58.297 c 12.126,6.402 23.267,-14.751 10.515,-21.274 l -96.401,-49.287 -24.53,12.264"
       style="fill:#2f2825;fill-opacity:1;fill-rule:evenodd;stroke:none;stroke-width:0.1"
       id="path78" /><path
       d="M 154.996,351.404 135.184,363.674 0,350.868 v -10.044 l 58.9258,-32.71 41.4912,9.491 54.579,33.799"
       style="fill:#769a2a;fill-opacity:1;fill-rule:evenodd;stroke:none;stroke-width:0.1"
       id="path80"
       class="is-themed-darkest" /><path
       d="M 154.996,361.449 135.184,373.717 7.10195,373.786 0,350.868 l 58.9258,-32.711 41.4912,9.492 54.579,33.8"
       style="fill:#87b027;fill-opacity:1;fill-rule:evenodd;stroke:none;stroke-width:0.1"
       id="path82"
       class="is-themed-dark" /><path
       d="M 289.211,487.9 52.5961,502.925 V 490.766 L 182.801,393.351 289.211,487.9"
       style="fill:#2f2825;fill-opacity:1;fill-rule:evenodd;stroke:none;stroke-width:0.1"
       id="path84" /><path
       d="M 289.211,500.059 90.8043,543.909 52.5961,502.925 182.801,405.51 l 106.41,94.549"
       style="fill:#463d3b;fill-opacity:1;fill-rule:evenodd;stroke:none;stroke-width:0.1"
       id="path86" /><path
       d="M 646.936,587.696 546,583.198 c -17.022,-0.759 -31.21,-4.67 -45.783,-12.622 l -77.57,-42.329 v -29.604 l 53.831,-37.3 69.32,37.828 c 20.467,11.168 36.462,23.193 52.788,39.684 l 48.35,48.841"
       style="fill:#463d3b;fill-opacity:1;fill-rule:evenodd;stroke:none;stroke-width:0.1"
       id="path88" /><path
       d="m 646.936,587.696 c -33.644,-1.5 -67.291,-2.998 -100.936,-4.498 -17.022,-0.759 -31.21,-4.67 -45.783,-12.622 -25.856,-14.11 -51.713,-28.219 -77.57,-42.329 0,-9.868 0,-19.736 0,-29.604 12.664,-8.775 25.326,-17.549 37.987,-26.323 70.752,29.171 133.878,66.528 186.302,115.376"
       style="fill:#adda1a;fill-opacity:1;fill-rule:evenodd;stroke:none;stroke-width:0.1"
       id="path90"
       class="is-themed" /><path
       d="m 476.524,484.011 -79.661,15.305 -9.533,-0.824 -84.287,-7.299 -142.201,-96.641 v -29.605 l 49.878,-30.889 49.877,-30.89 101.925,44.034 82.801,35.77 c 12.407,5.359 20.738,15.401 23.714,28.584 l 7.753,34.34 -0.266,38.115"
       style="fill:#769a2a;fill-opacity:1;fill-rule:evenodd;stroke:none;stroke-width:0.1"
       id="path92"
       class="is-themed-dark" /><path
       d="m 252.587,308.128 v 29.605 l -162.6354,2.995 v -29.606 l 83.7344,-51.857 78.901,48.863"
       style="fill:#2f2825;fill-opacity:1;fill-rule:evenodd;stroke:none;stroke-width:0.1"
       id="path94" /><path
       d="m 238.731,299.548 19.811,-12.27 v -95.38 l -37.008,-4.399 -52.709,52.552 v 10.046 l 69.906,49.451"
       style="fill:#769a2a;fill-opacity:1;fill-rule:evenodd;stroke:none;stroke-width:0.1"
       id="path96"
       class="is-themed-darkest" /><path
       d="M 535.911,252.531 V 237.73 L 469.734,214.066 291.949,324.17 v 14.801 l 243.962,-86.44"
       style="fill:#2f2825;fill-opacity:1;fill-rule:evenodd;stroke:none;stroke-width:0.1"
       id="path98" /><path
       d="m 404.985,529.625 -8.122,-0.704 -58.71,-5.083 C 314.377,521.78 294.536,513.245 276.69,497.402 l -44.747,-39.727 -71.101,-63.123 49.878,-30.888 49.877,-30.889 101.925,44.031 82.801,35.771 c 12.407,5.36 20.736,15.401 23.714,28.584 l 7.168,31.749 c 2.674,11.851 -2.233,23.552 -12.562,29.947 l -33.556,20.782 c -7.826,4.847 -15.931,6.78 -25.102,5.986"
       style="fill:#87b027;fill-opacity:1;fill-rule:evenodd;stroke:none;stroke-width:0.1"
       id="path100"
       class="is-themed" /><path
       d="m 252.587,337.733 -83.735,51.858 -78.9004,-48.863 83.7344,-51.857 78.901,48.862"
       style="fill:#463d3b;fill-opacity:1;fill-rule:evenodd;stroke:none;stroke-width:0.1"
       id="path102" /><path
       d="m 238.731,309.591 19.811,-12.269 v -95.379 l -37.008,-4.399 -52.709,52.553 15.327,25.696 54.579,33.798"
       style="fill:#87b027;fill-opacity:1;fill-rule:evenodd;stroke:none;stroke-width:0.1"
       id="path104"
       class="is-themed-dark" /><path
       d="m 89.9516,340.728 5.2527,-3.254 73.6477,52.117 -16.929,10.483 -18.617,-2.849 -47.8884,58.164 -5.2535,3.254 -33.0411,-9.78 42.8286,-108.135"
       style="fill:#adda1a;fill-opacity:1;fill-rule:evenodd;stroke:none;stroke-width:0.1"
       id="path106"
       class="is-themed-light" /><path
       d="m 95.2043,337.474 78.9007,48.865 -16.928,10.483 -18.617,-2.85 -53.1424,61.417 -33.0406,-9.78 42.8273,-108.135"
       style="fill:#9ac421;fill-opacity:1;fill-rule:evenodd;stroke:none;stroke-width:0.1"
       id="path108"
       class="is-themed" /><path
       d="m 444.619,404.872 91.292,-152.341 -66.177,-23.663 -177.785,110.103 152.67,65.901"
       style="fill:#463d3b;fill-opacity:1;fill-rule:evenodd;stroke:none;stroke-width:0.1"
       id="path110" /><path
       d="m 168.433,292.123 5.253,-3.252 73.648,52.116 -16.929,10.484 -18.618,-2.851 -47.888,58.166 -5.253,3.252 -33.042,-9.78 42.829,-108.135"
       style="fill:#adda1a;fill-opacity:1;fill-rule:evenodd;stroke:none;stroke-width:0.1"
       id="path112"
       class="is-themed-light" /><path
       d="m 173.686,288.871 78.901,48.862 -16.929,10.484 -18.617,-2.85 -53.142,61.419 -33.041,-9.782 42.828,-108.133"
       style="fill:#9ac421;fill-opacity:1;fill-rule:evenodd;stroke:none;stroke-width:0.1"
       id="path114"
       class="is-themed" /><path
       d="m 241.257,400.164 2.382,-1.274 c 8.95,-4.785 18.16,-5.477 26.598,-1.996 l 133.18,54.958 c 16.248,6.705 26.783,19.236 30.622,36.37 1.32,5.888 0.225,11.723 -3.259,17.368 -3.484,5.646 -8.384,9.528 -14.588,11.554 -3.577,1.169 -7.34,1.752 -11.184,1.694 l -23.31,-0.355 c -40.481,-0.617 -73.226,-14.729 -98.861,-42.606 l -47.672,-51.839 c -3.09,-3.361 -4.087,-7.784 -2.846,-12.64 1.237,-4.857 4.368,-8.788 8.938,-11.234"
       style="fill:#9ac421;fill-opacity:1;fill-rule:evenodd;stroke:none;stroke-width:0.1"
       id="path116"
       class="is-themed-light" /><path
       d="m 385.922,444.633 17.495,7.219 c 16.248,6.705 26.783,19.236 30.622,36.37 1.32,5.888 0.225,11.723 -3.259,17.368 -3.484,5.646 -8.384,9.528 -14.588,11.554 -3.577,1.169 -7.34,1.752 -11.184,1.694 l -23.31,-0.355 c -20.377,-0.31 -38.792,-4.043 -55.329,-11.226 23.925,9.672 43.527,-13.051 59.553,-62.624"
       style="fill:#2f2825;fill-opacity:1;fill-rule:evenodd;stroke:none;stroke-width:0.1"
       id="path118" /><path
       d="m 101.669,329.322 c 3.81,0 7.727,-5.204 8.746,-11.623 1.019,-6.42 -1.246,-11.625 -5.057,-11.625 -3.812,0 -7.7264,5.205 -8.7463,11.625 -1.0183,6.419 1.2461,11.623 5.0573,11.623"
       style="fill:#fab40a;fill-opacity:1;fill-rule:evenodd;stroke:none;stroke-width:0.1"
       id="path120" /><path
       d="m 119.644,318.221 c 3.81,0 7.726,-5.204 8.746,-11.625 1.019,-6.419 -1.246,-11.623 -5.057,-11.623 -3.812,0 -7.728,5.204 -8.747,11.623 -1.018,6.421 1.247,11.625 5.058,11.625"
       style="fill:#fab40a;fill-opacity:1;fill-rule:evenodd;stroke:none;stroke-width:0.1"
       id="path122" /><path
       d="m 137.617,307.119 c 3.812,0 7.728,-5.204 8.746,-11.623 1.019,-6.421 -1.244,-11.624 -5.056,-11.624 -3.811,0 -7.727,5.203 -8.746,11.624 -1.019,6.419 1.245,11.623 5.056,11.623"
       style="fill:#fab40a;fill-opacity:1;fill-rule:evenodd;stroke:none;stroke-width:0.1"
       id="path124" /><path
       d="m 155.592,296.016 c 3.812,0 7.727,-5.203 8.746,-11.622 1.019,-6.42 -1.245,-11.623 -5.057,-11.623 -3.81,0 -7.727,5.203 -8.745,11.623 -1.02,6.419 1.245,11.622 5.056,11.622"
       style="fill:#fab40a;fill-opacity:1;fill-rule:evenodd;stroke:none;stroke-width:0.1"
       id="path126" /><path
       d="M 416.947,392.926 479.938,281.888 378.129,376.172 Z"
       style="fill:#2f2825;fill-opacity:1;fill-rule:evenodd;stroke:none;stroke-width:0.1"
       id="path128" /><path
       d="m 263.924,486.069 -111.7,25.548 87.354,-47.164 z"
       style="fill:#2f2825;fill-opacity:1;fill-rule:evenodd;stroke:none;stroke-width:0.1"
       id="path130" /><path
       d="m 496.056,562.882 c -24.697,-12.521 -42.754,-26.545 -40.333,-31.321 2.422,-4.777 24.406,1.5 49.103,14.021 24.698,12.521 42.755,26.544 40.332,31.322 -2.421,4.776 -24.406,-1.502 -49.102,-14.022"
       style="fill:#c6e446;fill-opacity:1;fill-rule:evenodd;stroke:none;stroke-width:0.1"
       id="path132"
       class="is-themed-light" /></g></svg>
